{
  "name": "",
  "homePage": "",
  "repos": {
    "https://github.com/nf-core/modules.git": {
      "modules": {
        "nf-core": {
          "agat/convertspgff2gtf": {
            "branch": "master",
            "git_sha": "c8e35eb2055c099720a75538d1b8adb3fb5a464c",
            "installed_by": ["modules"]
          },
          "agat/convertspgxf2gxf": {
            "branch": "master",
            "git_sha": "c8e35eb2055c099720a75538d1b8adb3fb5a464c",
            "installed_by": ["modules"]
          },
          "agat/spstatistics": {
            "branch": "master",
            "git_sha": "911696ea0b62df80e900ef244d7867d177971f73",
            "installed_by": ["modules"]
          },
          "bedtools/bamtobed": {
            "branch": "master",
            "git_sha": "9e51255c4f8ec69fb6ccf68593392835f14fecb8",
            "installed_by": ["modules"]
          },
          "blast/makeblastdb": {
            "branch": "master",
            "git_sha": "911696ea0b62df80e900ef244d7867d177971f73",
            "installed_by": ["modules"]
          },
          "busco": {
            "branch": "master",
            "git_sha": "c8e35eb2055c099720a75538d1b8adb3fb5a464c",
            "installed_by": ["modules"]
          },
          "bwa/index": {
            "branch": "master",
            "git_sha": "c8e35eb2055c099720a75538d1b8adb3fb5a464c",
            "installed_by": ["modules"]
          },
          "bwamem2/index": {
            "branch": "master",
            "git_sha": "c8e35eb2055c099720a75538d1b8adb3fb5a464c",
            "installed_by": ["modules"]
          },
          "custom/dumpsoftwareversions": {
            "branch": "master",
            "git_sha": "911696ea0b62df80e900ef244d7867d177971f73",
            "installed_by": ["modules"]
          },
          "diamond/blastp": {
            "branch": "master",
            "git_sha": "911696ea0b62df80e900ef244d7867d177971f73",
            "installed_by": ["modules"]
          },
          "diamond/blastx": {
            "branch": "master",
            "git_sha": "911696ea0b62df80e900ef244d7867d177971f73",
            "installed_by": ["modules"]
          },
          "diamond/makedb": {
            "branch": "master",
            "git_sha": "911696ea0b62df80e900ef244d7867d177971f73",
            "installed_by": ["modules"]
          },
          "gffread": {
            "branch": "master",
            "git_sha": "c8e35eb2055c099720a75538d1b8adb3fb5a464c",
            "installed_by": ["modules"]
          },
          "gunzip": {
            "branch": "master",
            "git_sha": "c8e35eb2055c099720a75538d1b8adb3fb5a464c",
            "installed_by": ["modules"]
          },
          "hisat2/build": {
            "branch": "master",
            "git_sha": "c8e35eb2055c099720a75538d1b8adb3fb5a464c",
            "installed_by": ["modules"]
          },
          "hisat2/extractsplicesites": {
            "branch": "master",
            "git_sha": "c8e35eb2055c099720a75538d1b8adb3fb5a464c",
            "installed_by": ["modules"]
          },
          "md5sum": {
            "branch": "master",
            "git_sha": "3f5420aa22e00bd030a2556dfdffc9e164ec0ec5",
            "installed_by": ["modules"]
          },
          "minimap2/align": {
            "branch": "master",
            "git_sha": "603ecbd9f45300c9788f197d2a15a005685b4220",
            "installed_by": ["modules"]
          },
          "minimap2/index": {
            "branch": "master",
            "git_sha": "911696ea0b62df80e900ef244d7867d177971f73",
            "installed_by": ["modules"]
          },
          "quast": {
            "branch": "master",
            "git_sha": "911696ea0b62df80e900ef244d7867d177971f73",
            "installed_by": ["modules"]
          },
          "salmon/index": {
            "branch": "master",
            "git_sha": "ce801ced94947b2ff01002b4120eef2f79489b34",
            "installed_by": ["modules"]
          },
          "tabix/bgzip": {
            "branch": "master",
            "git_sha": "09d3c8c29b31a2dfd610305b10550f0e1dbcd4a9",
            "installed_by": ["modules"]
          },
          "transdecoder/longorf": {
            "branch": "master",
            "git_sha": "0f8a77ff00e65eaeebc509b8156eaa983192474b",
            "installed_by": ["modules"]
          },
          "transdecoder/predict": {
            "branch": "master",
            "git_sha": "0f8a77ff00e65eaeebc509b8156eaa983192474b",
            "installed_by": ["modules"]
          }
        }
      },
      "subworkflows": {
        "nf-core": {}
      }
    }
  }
}
